module url-collector

go 1.17

require (
	github.com/joho/godotenv v1.4.0
	github.com/stretchr/testify v1.7.0
	golang.org/x/sync v0.0.0-20210220032951-036812b2e83c
)

require (
	github.com/davecgh/go-spew v1.1.1 // indirect
	github.com/pmezard/go-difflib v1.0.0 // indirect
	gopkg.in/yaml.v3 v3.0.0-20210107192922-496545a6307b // indirect
)
